{
  "name": "Project_Agora",
  "version": "0.1.0",
  "description": "This is a website  to improve or learn  languages",
  "title": "Custom apiDoc Project_Agora",
  "url": "http://51.254.113.182/project_agora/",
  "sampleUrl": false,
  "apidoc": "0.2.0",
  "generator": {
    "name": "apidoc",
    "time": "2016-02-24T01:20:29.579Z",
    "url": "http://apidocjs.com",
    "version": "0.15.1"
  }
}
